<svg width="20" height="20" viewBox="0 0 20 20"  xmlns="http://www.w3.org/2000/svg">
<line x1="10.5" y1="2.18557e-08" x2="10.5" y2="20" stroke="#253645"/>
<line y1="9.5" x2="20" y2="9.5" stroke="#253645"/>
</svg>
